{
    "storageRoot": "https://cnamstraccount.blob.core.windows.net/",
    "imageListEndpoint": "https://cnamai.azurewebsites.net/api/ReturnAllFilesAndAnnotations?",
    "containerName": "aifiles",
    "connectionString": "BlobEndpoint=https://cnamstraccount.blob.core.windows.net/;QueueEndpoint=https://cnamstraccount.queue.core.windows.net/;FileEndpoint=https://cnamstraccount.file.core.windows.net/;TableEndpoint=https://cnamstraccount.table.core.windows.net/;SharedAccessSignature=sv=2020-02-10&ss=bfqt&srt=o&sp=rwdlacuptfx&se=2022-02-27T08:05:47Z&st=2021-05-22T23:05:47Z&spr=https&sig=sQZSvxkzhlO7CvP%2BGaVmgNku8OMGVrMorsBVHQ3%2FSJw%3D"
}